453670 370582 449
262021 329416 407
802096 655103 504
669202 564358 509
72247 843963 525
465864 559544 470
906383 920333 476
931283 802213 525
138704 21630 354
644634 228287 509
940266 316314 525
345996 503715 449
762729 800848 468
22008 973655 525
116397 440191 449
498174 844006 525
531425 490224 470
898936 965423 507
145853 286816 443
696981 926879 525
240064 263768 407
714853 34008 509
694505 470652 509
364785 146848 443
785989 401628 509
616768 282318 470
957613 517571 525
670244 348623 509
198312 446422 449
71377 371976 443
450296 480438 444
65743 100438 351
26078 654057 509
305361 925329 525
361551 382400 423
639342 647594 416
557540 367952 470
609034 734647 509
69455 241766 443
441406 362663 449
593211 195566 470
788483 719919 468
665223 682413 398
196048 758728 509
745342 116146 509
301362 826648 509
583770 383595 470
57568 382087 443
486482 898586 525
861504 305062 525
688436 873085 525
322019 150817 443
419779 458318 418
547491 62131 470
407533 417540 449
254077 955602 525
493685 32130 449
700358 27811 509
770361 14000 509
439360 589239 470
133706 299828 443
145566 726913 509
440360 736435 509
322352 321227 291
513862 831640 509
524419 498008 470
93050 941237 525
840098 683836 525
440521 490269 444
770070 50770 509
736409 85559 509
311812 286074 389
571243 666505 509
13276 303164 443
821358 162426 509
994565 721953 525
941314 477302 525
453058 689892 509
240002 6507 443
965209 889459 507
20604 305222 443
977421 383487 525
559275 974454 525
238681 286635 407
773423 308156 509
569293 119489 470
87664 753731 509
282866 101180 443
444022 778225 509
782838 567070 509
622656 303822 470
340148 159975 443
40395 478776 449
825293 436559 509
976558 183728 525
215827 54941 383
739043 338362 509
29501 765232 509
628369 769671 504
443549 11624 449
683355 130633 509
752277 72807 509
99330 116888 354
987905 316940 525
898254 19030 525
983778 328021 525
899840 469452 525
894354 372451 525
293780 95188 443
203025 917723 525
145362 671995 509
546639 689610 509
980256 289969 525
264739 59865 443
189006 987261 525
441829 393364 449
367684 286009 441
352640 351814 335
868425 73388 525
643165 50518 509
772054 310709 509
284375 395386 441
214681 124822 383
320856 889287 525
501196 938554 525
703219 689998 442
720751 430777 509
40980 726416 509
642844 281679 509
941718 235369 525
517316 855136 525
712655 168292 509
27565 197596 383
592423 535146 452
53495 991714 525
353622 902452 525
89211 392962 443
70870 942886 525
130177 998776 525
84415 145884 375
595550 552320 434
705966 541787 509
383614 366723 423
11254 566539 470
471730 870713 525
142938 999574 525
566922 122848 470
907832 244450 525
189232 619063 470
93998 89963 333
227152 227081 231
856150 488875 525
442975 621240 470
721877 822075 468
625587 162601 470
256549 577858 470
89222 771717 509
191400 369249 443
998923 975261 440
867097 736624 525
566939 972723 525
174233 238625 443
508980 265694 449
782505 921213 525
275282 119788 443
341985 372921 441
478613 888031 525
512691 223749 470
629848 14607 509
132800 125809 344
761474 359125 509
571192 965770 525
770351 334108 509
326606 302285 384
343275 232201 407
233545 796004 509
142394 34643 354
214178 705461 509
522218 938811 525
375815 359009 410
425971 820207 509
395166 881158 525
266241 853039 525
553411 351084 470
533369 553586 452
490243 1730 449
594742 581824 434
730362 29852 509
649128 739341 504
302540 80510 443
82432 735334 509
319192 493925 449
534702 457547 470
213512 958294 525
832976 681285 504
441572 299053 449
570495 377170 470
848398 753260 525
520081 37115 470
569875 227169 470
