1 10 20
100 200 125
201 210 89
900 1000 174
152279 469635 449
984576 355458 525
778014 874066 525
970396 100582 525
685437 194180 509
115797 236103 443
262694 527457 470
692797 167601 509
591645 462657 470
872507 901780 445
486300 308073 449
380164 833390 509
430009 770121 509
498244 406077 449
113609 606131 470
545081 987627 525
509481 975337 525
474483 182152 449
614361 760854 509
898957 937126 476
130085 209365 383
235047 826625 509
941440 164144 525
265742 394097 441
721425 519268 509
4868 846281 525
314817 415608 449
810734 492006 509
744191 642915 504
227596 50779 386
217697 644268 509
768085 458684 509
936677 551326 525
71384 467411 449
196999 994224 525
225069 607721 470
785151 329656 509
194138 182900 360
806838 832050 450
154303 191471 383
269101 993600 525
839448 9146 525
413203 471823 444
99994 108995 354
70244 66635 312
348650 347446 335
874598 290157 525
751572 796574 468
916880 475151 525
249322 790868 509
763841 522744 509
410162 976522 525
48455 177332 383
936749 502618 525
768304 665068 504
665029 583078 509
63892 28151 340
152631 963381 525
406999 87051 443
741119 498923 509
172120 573053 470
758767 215741 509
253789 807559 509
779607 872260 525
808113 165464 509
542800 144560 470
15497 145591 375
319091 180012 443
643790 880267 525
269976 887479 525
228884 697329 509
561835 535169 452
408319 606535 470
736253 284062 509
104681 273704 443
671686 475443 509
386286 530362 470
275369 246483 407
453830 453208 294
900936 357563 525
623540 22454 470
667955 291601 509
822046 102340 509
443081 16968 449
770883 479513 509
137596 120643 344
997036 228235 525
554191 421968 470
518801 892151 525
868164 863992 388
647545 693115 442
129808 20029 354
469549 302691 449
497987 733246 509
326582 966760 525
488985 283649 449
293946 936972 525
336697 512936 470
220854 537023 470
432945 409901 449
888592 501045 525
910677 35772 525
947716 801635 525
599591 733998 509
622184 538379 452
379053 108705 443
799565 309193 509
367797 809507 509
739106 257917 509
184656 735248 509
861806 478660 525
105417 468872 449
569620 57535 470
883154 145070 525
652317 828330 504
882707 483529 525
521129 3222 470
832373 15085 509
926802 445975 525
110447 659434 509
56114 875333 525
651938 348520 509
392084 915049 525
607721 305426 470
616923 329527 470
138311 870458 525
664459 202520 509
133850 174608 383
73526 192031 383
960553 455726 525
422348 262783 449
63346 899295 525
265046 465608 449
51670 966287 525
840245 274848 525
470116 970088 525
599769 374083 470
561115 248387 470
637131 669704 442
272926 484688 449
953556 970302 414
412327 285043 449
48612 527954 470
504830 774819 509
62496 65082 330
201935 171491 365
369145 127815 443
423761 716903 509
511120 489925 426
843679 96278 525
377659 850438 525
831978 344712 509
950719 184546 525
219777 190755 386
643741 485202 509
633063 724266 504
572116 964319 525
336009 396779 441
454095 203331 449
843727 866127 419
833478 571441 509
713257 763628 424
756617 712728 424
326023 597849 470
437434 411844 418
27559 358202 443
548480 325619 470
209745 868256 525
881822 732482 525
57327 504347 449
808800 576936 509
626902 286513 509
857661 5562 525
926277 476764 525
238624 138299 443
711483 159874 509
303518 230595 443
306220 753724 509
379560 53039 443
924534 407340 525
298578 627064 509
411744 646573 509
734175 362376 509
114210 73449 354
586786 486269 470
774299 479688 509
701099 31797 509
547665 333020 470
874841 725882 525
676662 784838 504
438813 415346 418
880152 785970 525
728419 771835 468
879564 567792 525
529996 289450 470
630468 552949 509
827734 862030 525
103640 418477 449
887685 12996 525
532448 771504 509
