531884 818465 509
690100 79570 509
827355 675811 504
180379 716477 509
473860 960160 525
326748 329181 353
10624 830399 509
785528 16786 509
382018 859545 525
852024 178502 525
771337 552766 509
44806 190445 383
214454 885342 525
74269 109662 354
881362 380773 525
988113 969572 458
946366 263887 525
449030 138031 449
750103 440835 509
477788 44105 449
1482 320059 443
440256 561335 470
222798 141087 386
257316 192404 443
869071 673337 525
711386 286858 509
356788 862800 525
951425 861712 507
623906 308498 470
207004 902490 525
821931 925280 525
413395 382151 449
904149 93886 525
53757 577098 470
31361 407315 443
317692 483225 449
337399 465389 449
556070 293926 470
174534 526513 470
964421 890265 507
624723 752688 509
951782 46357 525
473938 320282 449
663146 490149 509
842312 14319 525
371442 633960 509
454876 835730 509
144143 577661 470
771233 909765 525
302388 176376 443
129223 717072 509
336070 386937 441
88094 612315 470
616754 397704 470
584732 104863 470
538302 475821 470
142774 595093 470
281087 65580 443
530191 253879 470
772859 898990 525
62255 597498 470
465726 189890 449
898237 700563 525
396733 771639 509
634252 164058 509
226170 570450 470
613094 235879 470
960661 606559 525
395419 736396 509
914803 889908 476
261238 811386 509
727977 837996 525
257040 168728 443
338268 320340 384
927486 491868 525
244136 600052 470
236180 584739 470
620068 945154 525
854704 102566 525
414336 279135 449
39071 579339 470
197156 783487 509
933539 769905 525
269296 412355 449
47643 959758 525
231329 327371 407
730573 85982 509
593685 623741 447
68577 339637 443
484903 46434 449
877793 926291 476
267344 164030 443
782767 199749 509
855320 93162 525
362919 379102 423
790108 108266 509
637564 477573 509
567798 443411 470
807969 505013 509
957478 518231 525
187222 283823 443
746781 197374 509
723165 392753 509
197452 827439 509
153911 234624 443
96596 902173 525
572629 695639 509
434024 871452 525
543355 571396 452
392844 68412 443
467593 851560 525
724756 722406 380
409882 151382 443
155457 955767 525
543783 416786 470
57333 601486 470
228031 207268 386
344093 934849 525
242236 842341 525
782324 874546 525
261138 86671 443
561032 342113 470
773717 236766 509
420704 376632 449
290251 818847 509
308343 98339 443
515045 997856 525
602707 766396 509
318447 937241 525
977696 284853 525
966596 177645 525
458360 86513 449
743228 886876 525
89834 436853 449
683232 234286 509
31656 908123 525
387546 714194 509
927635 173074 525
66990 113987 354
991460 504293 525
682028 452597 509
893503 154854 525
315106 688006 509
334280 156929 443
432483 478261 444
731334 278639 509
251443 670234 509
635402 643858 416
778886 221414 509
858606 840360 419
283890 282396 358
774665 999515 525
794465 327583 509
691068 484878 509
691899 944562 525
20242 921116 525
149219 582136 470
428062 278071 449
344893 446136 449
141839 296170 443
342482 686538 509
42854 849346 525
759234 863214 525
843461 167927 525
66662 722200 509
816768 786806 468
607 172553 383
347672 976503 525
467401 55188 449
212554 446651 449
313716 734358 509
538563 601311 452
31517 544067 470
431863 370359 449
658390 221080 509
628748 373389 509
238412 371105 441
354974 982568 525
590526 188745 470
616660 232163 470
200761 67175 383
409498 558966 470
6576 73991 340
409469 952682 525
778448 478139 509
634904 840057 525
28610 877541 525
46682 44462 314
748724 379403 509
558634 233975 470
175289 24692 383
418455 479475 444
869359 305413 525
399196 591473 470
104823 173188 383
565957 58770 470
435892 672440 509
912842 127860 525
629111 449568 509
797305 601257 509
554582 767540 509
761515 656414 504
981578 490357 525
698140 124378 509
856860 534854 525
426053 340669 449
184219 994894 525
633523 255033 509
467520 789192 509
713178 872533 525
350501 766883 509
944901 982028 458
41716 570300 470
163595 507988 449
731894 906446 525
152517 912982 525
378084 479041 449
546693 406329 470
403343 295616 441
884803 611891 525
191431 826326 509
589132 313910 470
538300 237018 470
264376 199058 443
484803 503211 426
485513 874013 525
872396 262726 525
566549 26986 470
971364 687776 525
785352 228335 509
933605 73676 525
625073 323205 470
759598 559897 509
379287 931527 525
851240 666720 525
328506 954405 525
703601 904717 525
803742 452938 509
570517 152043 470
61662 485005 449
880196 898708 445
821640 863377 525
511681 956604 525
357603 720950 509
555935 933797 525
729726 63993 509
144173 75789 375
5903 26569 282
477166 636949 509
312532 416215 449
944433 702935 525
74426 156393 383
620284 480794 470
870550 818729 525
10223 377189 443
521050 83191 470
250276 305614 407
624925 387241 470
409284 420302 449
237729 713931 509
886707 369530 525
859409 584122 525
640251 763377 504
533722 505997 470
580754 848338 525
213106 10291 383
742096 472992 509
889352 876432 445
799511 162162 509
802616 585947 509
661484 427542 509
62588 605027 470
856156 619713 525
96567 900378 525
913848 96003 525
460456 228007 449
968149 699595 525
314062 71713 443
695285 882026 525
625669 226036 470
606021 249508 470
322319 205795 443
623488 704966 509
199928 499021 449
315332 800388 509
101905 937654 525
50763 108458 354
272797 379477 441
371836 373961 348
203686 489390 449
281937 29172 443
669524 452601 509
310095 287582 389
939089 976709 507
151250 989047 525
781357 312344 509
191872 394443 443
787631 660022 504
70966 129350 354
348113 286234 441
