50440 693340 509
973472 691340 525
761733 608532 509
873024 803153 525
192546 589853 470
446097 645054 509
787811 917875 525
93413 369823 443
62905 495645 449
661271 232294 509
674785 464942 509
885873 447519 525
513892 571817 452
773507 881742 525
624052 53254 470
519898 847238 525
558615 975513 525
681645 290142 509
922517 566874 525
547964 909953 525
629262 143547 509
876970 121916 525
598606 532192 452
443784 961790 525
684490 535481 509
543537 938876 525
371014 632634 509
782557 74430 509
767038 619298 509
203657 692487 509
233894 110314 443
165454 811908 509
893069 11860 525
433735 697522 509
599604 585623 403
619774 512027 452
532239 746823 509
861162 908479 445
566392 1500 470
5893 528792 470
32108 246277 443
150193 165378 383
741289 644867 504
941556 272382 525
622460 953892 525
696869 970105 525
8641 885246 525
500536 773480 509
844908 460078 525
713573 662603 504
815001 613500 509
399493 927113 525
889890 919987 476
513822 274107 470
369211 787921 509
304333 284024 389
654662 490567 509
202107 188176 360
464777 665673 509
982401 894711 507
46875 117802 354
579156 803423 509
275924 237884 407
684021 399158 509
174011 537269 470
511642 141248 449
631026 332386 509
90545 771506 509
151976 293353 443
160891 472173 449
384204 329412 441
986405 193612 525
428439 238576 449
910467 329112 525
6102 794015 509
116157 170526 383
180664 725988 509
6248 619037 470
235108 681070 509
704590 479301 509
754642 884268 525
511421 405641 449
813471 953300 525
46628 301997 443
11971 151986 375
878508 203754 525
958083 625211 525
567896 559051 421
964866 207609 525
994290 321102 525
850909 415837 525
693065 719575 504
434696 728731 509
480810 128057 449
690879 375581 509
761887 730041 424
678540 735047 504
700735 705828 504
269516 195608 443
153357 170168 383
565938 533316 452
113871 503095 449
503359 211687 449
734065 591774 509
292739 117839 443
466699 881807 525
558285 449617 470
127233 943145 525
411244 886537 525
545118 383778 470
74125 276479 443
47731 144315 375
972895 914764 507
883599 470905 525
3138 670993 509
341525 742691 509
148914 61767 375
775036 782651 437
521295 7643 470
644150 707663 504
614019 864422 525
904192 608734 525
810204 900100 525
559889 19141 470
663721 552909 509
247442 301347 407
672937 738421 504
379621 221813 443
886401 102147 525
695701 700043 367
931603 425332 525
340119 17795 443
622466 856390 525
890746 876237 445
713454 592171 509
648348 508719 509
48241 164607 383
184356 199388 360
181084 887379 525
898772 627818 525
951657 211586 525
677550 484155 509
239393 520077 470
49531 477433 449
29485 680163 509
555407 619822 447
104219 120649 354
418674 823306 509
841883 579824 525
83670 140309 354
562530 460674 470
360178 208266 443
348799 993774 525
246171 354005 441
377655 795451 509
421436 661794 509
295672 600064 470
198728 144431 383
164891 710622 509
823173 180122 509
368431 691535 509
762234 762878 331
757026 388706 509
933056 950657 507
604590 378478 470
677784 897893 525
187953 387639 443
125934 982590 525
611158 975508 525
235011 748822 509
350021 745687 509
42638 485081 449
130571 165860 383
57062 839375 525
290775 85667 443
424483 564901 470
295394 934387 525
437153 636034 509
62695 220330 386
24214 500939 449
612061 565430 434
31869 757718 509
101504 778257 509
693498 732506 504
16428 137045 354
702606 906884 525
303075 840913 525
594629 328439 470
858306 605026 525
837975 278353 525
294967 99826 443
999198 619322 525
959043 923683 507
273159 232026 407
824105 658122 504
663059 909600 525
447111 826905 509
335818 303469 384
381096 78751 443
698204 805462 504
113388 301692 443
573937 921692 525
323145 491908 449
391272 930949 525
457824 895394 525
348355 34588 443
432324 288996 449
195203 136618 383
720095 481566 509
100775 859094 525
77768 630832 509
434042 695859 509
48676 344707 443
568009 26448 470
703295 429318 509
108328 232820 443
962998 844356 507
431868 966993 525
602602 538039 452
433011 943133 525
558966 793449 509
536710 531731 377
577162 460905 470
622272 300659 470
834884 293629 509
934826 392636 525
506736 2185 449
466716 428776 444
358951 808007 509
255130 467269 449
543505 184754 470
17419 312221 443
956902 540223 525
530311 704005 509
379644 106228 443
144446 52209 375
658021 660451 398
95830 225514 386
787959 869150 525
31758 374716 443
672224 525063 509
619786 244125 470
496484 692480 509
585679 3919 470
875155 351428 525
279040 153459 443
149677 907588 525
475513 933409 525
720414 268134 509
551219 952786 525
591694 490131 470
130831 535373 470
554413 224883 470
975637 994610 427
964249 997802 458
846710 406536 525
806862 407968 509
956411 817198 525
330454 986724 525
429679 746079 509
331411 474738 449
347285 467280 449
438390 536042 470
21037 853451 525
65623 188096 383
758566 488288 509
369335 772313 509
377571 708396 509
814908 79007 509
939413 34881 525
597939 750152 509
663026 516233 509
190653 344105 443
480409 390170 449
894995 33158 525
669557 449241 509
443783 160714 449
410844 428713 418
226244 310893 443
839075 894148 445
441841 416983 418
24827 513026 470
981858 845130 507
638856 627456 416
904106 412971 525
851851 77760 525
277162 909580 525
113858 125703 349
967223 513395 525
175431 776316 509
913469 757149 525
209395 807750 509
793214 135511 509
41389 937133 525
472403 481724 413
875738 130513 525
994905 400869 525
852849 13613 525
847102 314660 525
423858 226557 449
